Laravel development server started: http://0.0.0.0:8000
[Sat Jul  4 21:49:30 2020] 47.247.5.140:37752 [200]: /vendor/icheck-bootstrap/icheck-bootstrap.min.css
[Sat Jul  4 21:49:30 2020] 47.247.37.72:37754 [200]: /vendor/fontawesome-free/css/all.min.css
[Sat Jul  4 21:49:30 2020] 47.247.37.72:37755 [200]: /vendor/overlayScrollbars/css/OverlayScrollbars.min.css
[Sat Jul  4 21:49:30 2020] 47.247.37.72:37756 [200]: /vendor/adminlte/dist/css/adminlte.min.css
[Sat Jul  4 21:49:30 2020] 47.247.37.72:37757 [200]: /vendor/jquery/jquery.min.js
[Sat Jul  4 21:49:30 2020] 47.247.5.140:37758 [200]: /vendor/adminlte/dist/img/AdminLTELogo.png
[Sat Jul  4 21:49:30 2020] 47.247.37.72:37760 [200]: /vendor/bootstrap/js/bootstrap.bundle.min.js
[Sat Jul  4 21:49:30 2020] 47.247.37.72:37761 [200]: /vendor/overlayScrollbars/js/jquery.overlayScrollbars.min.js
[Sat Jul  4 21:49:30 2020] 47.247.5.140:37762 [200]: /vendor/adminlte/dist/js/adminlte.min.js
[Sat Jul  4 21:49:31 2020] 47.247.5.140:37763 [200]: /vendor/fontawesome-free/webfonts/fa-solid-900.woff2
[Sat Jul  4 21:49:31 2020] 47.247.5.140:37765 [200]: /favicon.ico
[Sat Jul  4 21:49:32 2020] 47.247.5.140:37766 [200]: /vendor/icheck-bootstrap/icheck-bootstrap.min.css
[Sat Jul  4 21:49:32 2020] 47.247.37.72:37769 [200]: /vendor/fontawesome-free/css/all.min.css
[Sat Jul  4 21:49:32 2020] 47.247.5.140:37770 [200]: /vendor/adminlte/dist/css/adminlte.min.css
[Sat Jul  4 21:49:32 2020] 47.247.37.72:37768 [200]: /vendor/overlayScrollbars/css/OverlayScrollbars.min.css
[Sat Jul  4 21:49:32 2020] 47.247.5.140:37772 [200]: /vendor/jquery/jquery.min.js
[Sat Jul  4 21:49:32 2020] 47.247.37.72:37771 [200]: /vendor/bootstrap/js/bootstrap.bundle.min.js
[Sat Jul  4 21:49:32 2020] 47.247.5.140:37773 [200]: /vendor/adminlte/dist/img/AdminLTELogo.png
[Sat Jul  4 21:49:32 2020] 47.247.37.72:37774 [200]: /vendor/overlayScrollbars/js/jquery.overlayScrollbars.min.js
[Sat Jul  4 21:49:32 2020] 47.247.5.140:37775 [200]: /vendor/adminlte/dist/js/adminlte.min.js
[Sat Jul  4 21:49:34 2020] 47.247.5.140:37776 [200]: /vendor/fontawesome-free/webfonts/fa-solid-900.woff2
[Sat Jul  4 21:49:35 2020] 47.247.37.72:37777 [200]: /favicon.ico
[Sat Jul  4 21:49:37 2020] 171.61.15.197:17777 [200]: /favicon.ico
[Sat Jul  4 21:49:40 2020] 47.247.5.140:37778 [200]: /vendor/icheck-bootstrap/icheck-bootstrap.min.css
[Sat Jul  4 21:49:40 2020] 47.247.5.140:37780 [200]: /vendor/fontawesome-free/css/all.min.css
[Sat Jul  4 21:49:40 2020] 47.247.37.72:37781 [200]: /vendor/overlayScrollbars/css/OverlayScrollbars.min.css
[Sat Jul  4 21:49:40 2020] 47.247.37.72:37782 [200]: /vendor/adminlte/dist/css/adminlte.min.css
[Sat Jul  4 21:49:40 2020] 47.247.5.140:37783 [200]: /vendor/jquery/jquery.min.js
[Sat Jul  4 21:49:40 2020] 47.247.37.72:37784 [200]: /vendor/bootstrap/js/bootstrap.bundle.min.js
[Sat Jul  4 21:49:40 2020] 47.247.5.140:37786 [200]: /vendor/adminlte/dist/img/AdminLTELogo.png
[Sat Jul  4 21:49:40 2020] 47.247.5.140:37787 [200]: /vendor/overlayScrollbars/js/jquery.overlayScrollbars.min.js
[Sat Jul  4 21:49:41 2020] 47.247.5.140:37788 [200]: /vendor/adminlte/dist/js/adminlte.min.js
[Sat Jul  4 21:49:42 2020] 47.247.5.140:37789 [200]: /vendor/fontawesome-free/webfonts/fa-solid-900.woff2
[Sat Jul  4 21:49:42 2020] 47.247.5.140:37790 [200]: /favicon.ico
[Sat Jul  4 21:49:43 2020] 47.247.5.140:37792 [200]: /vendor/icheck-bootstrap/icheck-bootstrap.min.css
[Sat Jul  4 21:49:43 2020] 47.247.37.72:37794 [200]: /vendor/fontawesome-free/css/all.min.css
[Sat Jul  4 21:49:43 2020] 47.247.5.140:37795 [200]: /vendor/overlayScrollbars/css/OverlayScrollbars.min.css
[Sat Jul  4 21:49:43 2020] 47.247.5.140:37796 [200]: /vendor/adminlte/dist/css/adminlte.min.css
[Sat Jul  4 21:49:43 2020] 47.247.5.140:37797 [200]: /vendor/bootstrap/js/bootstrap.bundle.min.js
[Sat Jul  4 21:49:43 2020] 47.247.5.140:37798 [200]: /vendor/jquery/jquery.min.js
[Sat Jul  4 21:49:43 2020] 47.247.5.140:37799 [200]: /vendor/adminlte/dist/img/AdminLTELogo.png
[Sat Jul  4 21:49:43 2020] 47.247.37.72:37800 [200]: /vendor/overlayScrollbars/js/jquery.overlayScrollbars.min.js
[Sat Jul  4 21:49:43 2020] 47.247.37.72:37801 [200]: /vendor/adminlte/dist/js/adminlte.min.js
[Sat Jul  4 21:49:45 2020] 47.247.5.140:37802 [200]: /vendor/fontawesome-free/webfonts/fa-solid-900.woff2
[Sat Jul  4 21:49:45 2020] 47.247.37.72:37803 [200]: /favicon.ico
[Sat Jul  4 21:49:46 2020] 171.61.15.197:17786 [200]: /favicon.ico
[Sat Jul  4 21:49:47 2020] 47.247.37.72:37805 [200]: /vendor/icheck-bootstrap/icheck-bootstrap.min.css
[Sat Jul  4 21:49:47 2020] 47.247.5.140:37808 [200]: /vendor/fontawesome-free/css/all.min.css
[Sat Jul  4 21:49:47 2020] 47.247.5.140:37810 [200]: /vendor/adminlte/dist/css/adminlte.min.css
[Sat Jul  4 21:49:47 2020] 47.247.5.140:37807 [200]: /vendor/overlayScrollbars/css/OverlayScrollbars.min.css
[Sat Jul  4 21:49:47 2020] 47.247.5.140:37809 [200]: /vendor/jquery/jquery.min.js
[Sat Jul  4 21:49:47 2020] 47.247.37.72:37811 [200]: /vendor/adminlte/dist/img/AdminLTELogo.png
[Sat Jul  4 21:49:47 2020] 47.247.5.140:37812 [200]: /vendor/bootstrap/js/bootstrap.bundle.min.js
[Sat Jul  4 21:49:47 2020] 47.247.5.140:37813 [200]: /vendor/overlayScrollbars/js/jquery.overlayScrollbars.min.js
[Sat Jul  4 21:49:47 2020] 47.247.37.72:37814 [200]: /vendor/adminlte/dist/js/adminlte.min.js
[Sat Jul  4 21:49:48 2020] 171.61.15.197:17788 [200]: /favicon.ico
[Sat Jul  4 21:49:49 2020] 47.247.5.140:37815 [200]: /vendor/fontawesome-free/webfonts/fa-solid-900.woff2
[Sat Jul  4 21:49:49 2020] 47.247.5.140:37816 [200]: /favicon.ico
[Sat Jul  4 21:49:49 2020] 171.61.15.197:17790 [200]: /favicon.ico
[Sat Jul  4 21:49:51 2020] 171.61.15.197:17792 [200]: /favicon.ico
[Sat Jul  4 21:49:53 2020] 171.61.15.197:17794 [200]: /favicon.ico
[Sat Jul  4 21:50:25 2020] 47.247.5.140:37819 [200]: /vendor/icheck-bootstrap/icheck-bootstrap.min.css
[Sat Jul  4 21:50:25 2020] 47.247.5.140:37823 [200]: /vendor/fontawesome-free/css/all.min.css
[Sat Jul  4 21:50:25 2020] 47.247.37.72:37822 [200]: /vendor/overlayScrollbars/css/OverlayScrollbars.min.css
[Sat Jul  4 21:50:25 2020] 47.247.5.140:37826 [200]: /vendor/jquery/jquery.min.js
[Sat Jul  4 21:50:25 2020] 47.247.5.140:37824 [200]: /vendor/adminlte/dist/css/adminlte.min.css
[Sat Jul  4 21:50:25 2020] 47.247.37.72:37825 [200]: /vendor/bootstrap/js/bootstrap.bundle.min.js
[Sat Jul  4 21:50:25 2020] 47.247.37.72:37828 [200]: /vendor/adminlte/dist/img/AdminLTELogo.png
[Sat Jul  4 21:50:25 2020] 47.247.5.140:37830 [200]: /vendor/overlayScrollbars/js/jquery.overlayScrollbars.min.js
[Sat Jul  4 21:50:25 2020] 47.247.5.140:37829 [200]: /vendor/adminlte/dist/js/adminlte.min.js
[Sat Jul  4 21:50:27 2020] 47.247.37.72:37831 [200]: /vendor/fontawesome-free/webfonts/fa-solid-900.woff2
[Sat Jul  4 21:50:27 2020] 47.247.37.72:37832 [200]: /favicon.ico
[Sat Jul  4 21:50:29 2020] 47.247.5.140:37833 [200]: /vendor/icheck-bootstrap/icheck-bootstrap.min.css
[Sat Jul  4 21:50:29 2020] 47.247.5.140:37836 [200]: /vendor/fontawesome-free/css/all.min.css
[Sat Jul  4 21:50:29 2020] 47.247.5.140:37837 [200]: /vendor/overlayScrollbars/css/OverlayScrollbars.min.css
[Sat Jul  4 21:50:29 2020] 47.247.37.72:37835 [200]: /vendor/adminlte/dist/css/adminlte.min.css
[Sat Jul  4 21:50:29 2020] 47.247.5.140:37838 [200]: /vendor/jquery/jquery.min.js
[Sat Jul  4 21:50:29 2020] 47.247.37.72:37839 [200]: /vendor/adminlte/dist/img/AdminLTELogo.png
[Sat Jul  4 21:50:29 2020] 47.247.5.140:37840 [200]: /vendor/bootstrap/js/bootstrap.bundle.min.js
[Sat Jul  4 21:50:29 2020] 47.247.5.140:37841 [200]: /vendor/overlayScrollbars/js/jquery.overlayScrollbars.min.js
[Sat Jul  4 21:50:29 2020] 47.247.37.72:37842 [200]: /vendor/adminlte/dist/js/adminlte.min.js
[Sat Jul  4 21:50:29 2020] 171.61.15.197:17827 [200]: /favicon.ico
[Sat Jul  4 21:50:30 2020] 47.247.37.72:37843 [200]: /vendor/fontawesome-free/webfonts/fa-solid-900.woff2
[Sat Jul  4 21:50:30 2020] 47.247.5.140:37844 [200]: /favicon.ico
[Sat Jul  4 21:50:31 2020] 171.61.15.197:17832 [200]: /favicon.ico
[Sat Jul  4 21:50:32 2020] 47.247.37.72:37847 [200]: /vendor/icheck-bootstrap/icheck-bootstrap.min.css
[Sat Jul  4 21:50:32 2020] 47.247.5.140:37852 [200]: /vendor/adminlte/dist/css/adminlte.min.css
[Sat Jul  4 21:50:32 2020] 47.247.5.140:37848 [200]: /vendor/fontawesome-free/css/all.min.css
[Sat Jul  4 21:50:32 2020] 47.247.5.140:37849 [200]: /vendor/overlayScrollbars/css/OverlayScrollbars.min.css
[Sat Jul  4 21:50:32 2020] 47.247.37.72:37850 [200]: /vendor/jquery/jquery.min.js
[Sat Jul  4 21:50:32 2020] 47.247.37.72:37851 [200]: /vendor/adminlte/dist/img/AdminLTELogo.png
[Sat Jul  4 21:50:32 2020] 47.247.5.140:37853 [200]: /vendor/bootstrap/js/bootstrap.bundle.min.js
[Sat Jul  4 21:50:33 2020] 47.247.5.140:37854 [200]: /vendor/overlayScrollbars/js/jquery.overlayScrollbars.min.js
[Sat Jul  4 21:50:33 2020] 47.247.5.140:37855 [200]: /vendor/adminlte/dist/js/adminlte.min.js
[Sat Jul  4 21:50:34 2020] 47.247.5.140:37856 [200]: /vendor/fontawesome-free/webfonts/fa-solid-900.woff2
[Sat Jul  4 21:50:34 2020] 47.247.37.72:37857 [200]: /favicon.ico
[Sat Jul  4 21:50:35 2020] 171.61.15.197:17836 [200]: /vendor/icheck-bootstrap/icheck-bootstrap.min.css
[Sat Jul  4 21:50:35 2020] 171.61.15.197:17844 [200]: /vendor/fontawesome-free/css/all.min.css
[Sat Jul  4 21:50:35 2020] 171.61.15.197:17841 [200]: /vendor/overlayScrollbars/css/OverlayScrollbars.min.css
[Sat Jul  4 21:50:35 2020] 171.61.15.197:17842 [200]: /vendor/adminlte/dist/css/adminlte.min.css
[Sat Jul  4 21:50:35 2020] 171.61.15.197:17843 [200]: /vendor/jquery/jquery.min.js
[Sat Jul  4 21:50:35 2020] 171.61.15.197:17845 [200]: /vendor/bootstrap/js/bootstrap.bundle.min.js
[Sat Jul  4 21:50:36 2020] 171.61.15.197:17846 [200]: /vendor/overlayScrollbars/js/jquery.overlayScrollbars.min.js
[Sat Jul  4 21:50:36 2020] 171.61.15.197:17847 [200]: /vendor/adminlte/dist/js/adminlte.min.js
[Sat Jul  4 21:50:36 2020] 171.61.15.197:17848 [200]: /vendor/adminlte/dist/img/AdminLTELogo.png
[Sat Jul  4 21:50:38 2020] 171.61.15.197:17849 [200]: /vendor/fontawesome-free/webfonts/fa-solid-900.woff2
[Sat Jul  4 21:50:38 2020] 171.61.15.197:17850 [200]: /favicon.ico
[Sat Jul  4 21:50:45 2020] 171.61.15.197:17857 [200]: /vendor/fontawesome-free/css/all.min.css
[Sat Jul  4 21:50:45 2020] 171.61.15.197:17859 [200]: /vendor/overlayScrollbars/css/OverlayScrollbars.min.css
[Sat Jul  4 21:50:45 2020] 171.61.15.197:17858 [200]: /vendor/adminlte/dist/css/adminlte.min.css
[Sat Jul  4 21:50:45 2020] 171.61.15.197:17862 [200]: /vendor/jquery/jquery.min.js
[Sat Jul  4 21:50:45 2020] 171.61.15.197:17860 [200]: /vendor/adminlte/dist/img/AdminLTELogo.png
[Sat Jul  4 21:50:45 2020] 171.61.15.197:17863 [200]: /vendor/bootstrap/js/bootstrap.bundle.min.js
[Sat Jul  4 21:50:45 2020] 171.61.15.197:17864 [200]: /vendor/overlayScrollbars/js/jquery.overlayScrollbars.min.js
[Sat Jul  4 21:50:46 2020] 171.61.15.197:17865 [200]: /vendor/adminlte/dist/js/adminlte.min.js
[Sat Jul  4 21:50:47 2020] 171.61.15.197:17866 [200]: /vendor/fontawesome-free/webfonts/fa-solid-900.woff2
[Sat Jul  4 21:50:47 2020] 171.61.15.197:17867 [200]: /vendor/fontawesome-free/webfonts/fa-regular-400.woff2
[Sat Jul  4 21:50:47 2020] 171.61.15.197:17868 [200]: /favicon.ico
[Sat Jul  4 21:50:58 2020] 171.61.15.197:17873 [200]: /vendor/fontawesome-free/css/all.min.css
[Sat Jul  4 21:50:58 2020] 171.61.15.197:17876 [200]: /vendor/overlayScrollbars/css/OverlayScrollbars.min.css
[Sat Jul  4 21:50:58 2020] 171.61.15.197:17879 [200]: /vendor/adminlte/dist/css/adminlte.min.css
[Sat Jul  4 21:50:58 2020] 171.61.15.197:17877 [200]: /vendor/jquery/jquery.min.js
[Sat Jul  4 21:50:58 2020] 171.61.15.197:17878 [200]: /vendor/bootstrap/js/bootstrap.bundle.min.js
[Sat Jul  4 21:50:58 2020] 171.61.15.197:17881 [200]: /vendor/overlayScrollbars/js/jquery.overlayScrollbars.min.js
[Sat Jul  4 21:50:58 2020] 171.61.15.197:17882 [200]: /vendor/adminlte/dist/js/adminlte.min.js
[Sat Jul  4 21:50:59 2020] 171.61.15.197:17883 [200]: /vendor/adminlte/dist/img/AdminLTELogo.png
[Sat Jul  4 21:51:00 2020] 171.61.15.197:17887 [200]: /vendor/fontawesome-free/webfonts/fa-solid-900.woff2
[Sat Jul  4 21:51:00 2020] 171.61.15.197:17888 [200]: /vendor/fontawesome-free/webfonts/fa-regular-400.woff2
[Sat Jul  4 21:51:01 2020] 171.61.15.197:17889 [200]: /favicon.ico
[Sat Jul  4 21:51:07 2020] 171.61.15.197:17894 [200]: /vendor/fontawesome-free/css/all.min.css
[Sat Jul  4 21:51:07 2020] 171.61.15.197:17895 [200]: /vendor/overlayScrollbars/css/OverlayScrollbars.min.css
[Sat Jul  4 21:51:07 2020] 171.61.15.197:17898 [200]: /vendor/adminlte/dist/css/adminlte.min.css
[Sat Jul  4 21:51:07 2020] 171.61.15.197:17899 [200]: /vendor/adminlte/dist/img/AdminLTELogo.png
[Sat Jul  4 21:51:08 2020] 171.61.15.197:17902 [200]: /vendor/bootstrap/js/bootstrap.bundle.min.js
[Sat Jul  4 21:51:08 2020] 171.61.15.197:17901 [200]: /vendor/overlayScrollbars/js/jquery.overlayScrollbars.min.js
[Sat Jul  4 21:51:08 2020] 171.61.15.197:17903 [200]: /vendor/adminlte/dist/js/adminlte.min.js
[Sat Jul  4 21:51:08 2020] 171.61.15.197:17897 [200]: /vendor/jquery/jquery.min.js
[Sat Jul  4 21:51:09 2020] 171.61.15.197:17904 [200]: /vendor/fontawesome-free/webfonts/fa-solid-900.woff2
[Sat Jul  4 21:51:09 2020] 171.61.15.197:17905 [200]: /vendor/fontawesome-free/webfonts/fa-regular-400.woff2
[Sat Jul  4 21:51:10 2020] 171.61.15.197:17906 [200]: /favicon.ico
[Sat Jul  4 21:51:11 2020] 171.61.15.197:17908 [200]: /vendor/fontawesome-free/css/all.min.css
[Sat Jul  4 21:51:11 2020] 171.61.15.197:17911 [200]: /vendor/overlayScrollbars/css/OverlayScrollbars.min.css
[Sat Jul  4 21:51:11 2020] 171.61.15.197:17912 [200]: /vendor/adminlte/dist/css/adminlte.min.css
[Sat Jul  4 21:51:11 2020] 171.61.15.197:17910 [200]: /vendor/jquery/jquery.min.js
[Sat Jul  4 21:51:11 2020] 171.61.15.197:17913 [200]: /vendor/bootstrap/js/bootstrap.bundle.min.js
[Sat Jul  4 21:51:12 2020] 171.61.15.197:17916 [200]: /vendor/overlayScrollbars/js/jquery.overlayScrollbars.min.js
[Sat Jul  4 21:51:12 2020] 171.61.15.197:17918 [200]: /vendor/adminlte/dist/img/AdminLTELogo.png
[Sat Jul  4 21:51:12 2020] 171.61.15.197:17917 [200]: /vendor/adminlte/dist/js/adminlte.min.js
[Sat Jul  4 21:51:13 2020] 171.61.15.197:17920 [200]: /vendor/fontawesome-free/webfonts/fa-solid-900.woff2
[Sat Jul  4 21:51:13 2020] 171.61.15.197:17919 [200]: /vendor/fontawesome-free/webfonts/fa-regular-400.woff2
[Sat Jul  4 21:51:14 2020] 171.61.15.197:17921 [200]: /favicon.ico
[Sat Jul  4 21:51:20 2020] 171.61.15.197:17927 [200]: /vendor/fontawesome-free/css/all.min.css
[Sat Jul  4 21:51:20 2020] 171.61.15.197:17932 [200]: /vendor/overlayScrollbars/css/OverlayScrollbars.min.css
[Sat Jul  4 21:51:20 2020] 171.61.15.197:17929 [200]: /vendor/adminlte/dist/css/adminlte.min.css
[Sat Jul  4 21:51:20 2020] 171.61.15.197:17931 [200]: /vendor/jquery/jquery.min.js
[Sat Jul  4 21:51:20 2020] 171.61.15.197:17933 [200]: /vendor/adminlte/dist/img/AdminLTELogo.png
[Sat Jul  4 21:51:20 2020] 171.61.15.197:17934 [200]: /vendor/bootstrap/js/bootstrap.bundle.min.js
[Sat Jul  4 21:51:20 2020] 171.61.15.197:17936 [200]: /vendor/adminlte/dist/js/adminlte.min.js
[Sat Jul  4 21:51:21 2020] 171.61.15.197:17935 [200]: /vendor/overlayScrollbars/js/jquery.overlayScrollbars.min.js
[Sat Jul  4 21:51:22 2020] 171.61.15.197:17938 [200]: /vendor/fontawesome-free/webfonts/fa-solid-900.woff2
[Sat Jul  4 21:51:22 2020] 171.61.15.197:17937 [200]: /vendor/fontawesome-free/webfonts/fa-regular-400.woff2
[Sat Jul  4 21:51:22 2020] 171.61.15.197:17939 [200]: /favicon.ico
[Sat Jul  4 21:51:32 2020] 47.247.5.140:37859 [200]: /favicon.ico
[Sat Jul  4 21:51:33 2020] 47.247.5.140:37858 [200]: /favicon.ico
[Sat Jul  4 21:51:45 2020] 171.61.15.197:17940 Invalid request (Connection reset by peer)
[Sat Jul  4 21:51:52 2020] 47.247.37.72:37868 [200]: /vendor/fontawesome-free/css/all.min.css
[Sat Jul  4 21:51:52 2020] 47.247.37.72:37869 [200]: /vendor/overlayScrollbars/css/OverlayScrollbars.min.css
[Sat Jul  4 21:51:52 2020] 47.247.5.140:37871 [200]: /vendor/adminlte/dist/css/adminlte.min.css
[Sat Jul  4 21:51:52 2020] 47.247.5.140:37873 [200]: /vendor/jquery/jquery.min.js
[Sat Jul  4 21:51:52 2020] 47.247.37.72:37872 [200]: /vendor/adminlte/dist/img/AdminLTELogo.png
[Sat Jul  4 21:51:52 2020] 47.247.37.72:37876 [200]: /vendor/bootstrap/js/bootstrap.bundle.min.js
[Sat Jul  4 21:51:52 2020] 47.247.37.72:37877 [200]: /vendor/overlayScrollbars/js/jquery.overlayScrollbars.min.js
[Sat Jul  4 21:51:52 2020] 47.247.37.72:37875 [200]: /vendor/adminlte/dist/js/adminlte.min.js
[Sat Jul  4 21:51:54 2020] 47.247.5.140:37879 [200]: /vendor/fontawesome-free/webfonts/fa-solid-900.woff2
[Sat Jul  4 21:51:54 2020] 47.247.5.140:37878 [200]: /vendor/fontawesome-free/webfonts/fa-regular-400.woff2
[Sat Jul  4 21:51:54 2020] 47.247.5.140:37880 [200]: /favicon.ico
[Sat Jul  4 21:59:29 2020] 47.247.5.140:37898 [200]: /vendor/fontawesome-free/css/all.min.css
[Sat Jul  4 21:59:29 2020] 47.247.5.140:37905 [200]: /vendor/overlayScrollbars/css/OverlayScrollbars.min.css
[Sat Jul  4 21:59:29 2020] 47.247.37.72:37907 [200]: /vendor/adminlte/dist/css/adminlte.min.css
[Sat Jul  4 21:59:29 2020] 47.247.37.72:37909 [200]: /vendor/adminlte/dist/img/AdminLTELogo.png
[Sat Jul  4 21:59:29 2020] 47.247.5.140:37908 [200]: /vendor/jquery/jquery.min.js
[Sat Jul  4 21:59:29 2020] 47.247.5.140:37913 [200]: /vendor/bootstrap/js/bootstrap.bundle.min.js
[Sat Jul  4 21:59:29 2020] 47.247.5.140:37914 [200]: /vendor/overlayScrollbars/js/jquery.overlayScrollbars.min.js
[Sat Jul  4 21:59:29 2020] 47.247.37.72:37915 [200]: /vendor/adminlte/dist/js/adminlte.min.js
[Sat Jul  4 21:59:30 2020] 47.247.5.140:37918 [200]: /vendor/fontawesome-free/webfonts/fa-regular-400.woff2
[Sat Jul  4 21:59:30 2020] 47.247.5.140:37917 [200]: /vendor/fontawesome-free/webfonts/fa-solid-900.woff2
[Sat Jul  4 21:59:31 2020] 47.247.37.72:37921 [200]: /favicon.ico
[Sat Jul  4 21:59:39 2020] 47.247.37.72:37928 [200]: /vendor/overlayScrollbars/css/OverlayScrollbars.min.css
[Sat Jul  4 21:59:39 2020] 47.247.5.140:37924 [200]: /vendor/fontawesome-free/css/all.min.css
[Sat Jul  4 21:59:39 2020] 47.247.37.72:37927 [200]: /vendor/adminlte/dist/css/adminlte.min.css
[Sat Jul  4 21:59:39 2020] 47.247.37.72:37930 [200]: /vendor/jquery/jquery.min.js
[Sat Jul  4 21:59:39 2020] 47.247.5.140:37931 [200]: /vendor/adminlte/dist/img/AdminLTELogo.png
[Sat Jul  4 21:59:40 2020] 47.247.5.140:37933 [200]: /vendor/bootstrap/js/bootstrap.bundle.min.js
[Sat Jul  4 21:59:40 2020] 47.247.37.72:37932 [200]: /vendor/adminlte/dist/js/adminlte.min.js
[Sat Jul  4 21:59:40 2020] 47.247.37.72:37934 [200]: /vendor/overlayScrollbars/js/jquery.overlayScrollbars.min.js
[Sat Jul  4 21:59:42 2020] 47.247.37.72:37935 [200]: /vendor/fontawesome-free/webfonts/fa-solid-900.woff2
[Sat Jul  4 21:59:42 2020] 47.247.5.140:37936 [200]: /vendor/fontawesome-free/webfonts/fa-regular-400.woff2
[Sat Jul  4 21:59:42 2020] 47.247.37.72:37937 [200]: /favicon.ico
[Sat Jul  4 21:59:49 2020] 47.247.5.140:37939 [200]: /vendor/fontawesome-free/css/all.min.css
[Sat Jul  4 21:59:49 2020] 47.247.5.140:37940 [200]: /vendor/overlayScrollbars/css/OverlayScrollbars.min.css
[Sat Jul  4 21:59:49 2020] 47.247.37.72:37941 [200]: /vendor/adminlte/dist/css/adminlte.min.css
[Sat Jul  4 21:59:49 2020] 47.247.5.140:37942 [200]: /vendor/jquery/jquery.min.js
[Sat Jul  4 21:59:49 2020] 47.247.5.140:37944 [200]: /vendor/adminlte/dist/img/AdminLTELogo.png
[Sat Jul  4 21:59:49 2020] 47.247.37.72:37946 [200]: /vendor/bootstrap/js/bootstrap.bundle.min.js
[Sat Jul  4 21:59:50 2020] 47.247.5.140:37947 [200]: /vendor/overlayScrollbars/js/jquery.overlayScrollbars.min.js
[Sat Jul  4 21:59:51 2020] 47.247.5.140:37948 [200]: /vendor/adminlte/dist/js/adminlte.min.js
[Sat Jul  4 21:59:51 2020] 47.247.37.72:37949 [200]: /vendor/fontawesome-free/webfonts/fa-solid-900.woff2
[Sat Jul  4 21:59:51 2020] 47.247.37.72:37950 [200]: /vendor/fontawesome-free/webfonts/fa-regular-400.woff2
[Sat Jul  4 21:59:51 2020] 47.247.37.72:37951 [200]: /favicon.ico
[Sat Jul  4 21:59:58 2020] 47.247.37.72:37953 [200]: /vendor/fontawesome-free/css/all.min.css
[Sat Jul  4 21:59:58 2020] 47.247.5.140:37957 [200]: /vendor/overlayScrollbars/css/OverlayScrollbars.min.css
[Sat Jul  4 21:59:58 2020] 47.247.5.140:37956 [200]: /vendor/adminlte/dist/css/adminlte.min.css
[Sat Jul  4 21:59:58 2020] 47.247.37.72:37959 [200]: /vendor/jquery/jquery.min.js
[Sat Jul  4 21:59:58 2020] 47.247.37.72:37960 [200]: /vendor/adminlte/dist/img/AdminLTELogo.png
[Sat Jul  4 21:59:58 2020] 47.247.5.140:37961 [200]: /vendor/bootstrap/js/bootstrap.bundle.min.js
[Sat Jul  4 21:59:59 2020] 47.247.37.72:37962 [200]: /vendor/adminlte/dist/js/adminlte.min.js
[Sat Jul  4 21:59:59 2020] 47.247.37.72:37963 [200]: /vendor/overlayScrollbars/js/jquery.overlayScrollbars.min.js
[Sat Jul  4 22:00:00 2020] 47.247.5.140:37964 [200]: /vendor/fontawesome-free/webfonts/fa-solid-900.woff2
[Sat Jul  4 22:00:00 2020] 47.247.37.72:37965 [200]: /vendor/fontawesome-free/webfonts/fa-regular-400.woff2
[Sat Jul  4 22:00:00 2020] 47.247.37.72:37966 [200]: /favicon.ico
[Sat Jul  4 22:00:07 2020] 47.247.37.72:37968 [200]: /vendor/fontawesome-free/css/all.min.css
[Sat Jul  4 22:00:07 2020] 47.247.5.140:37969 [200]: /vendor/overlayScrollbars/css/OverlayScrollbars.min.css
[Sat Jul  4 22:00:07 2020] 47.247.5.140:37972 [200]: /vendor/adminlte/dist/css/adminlte.min.css
[Sat Jul  4 22:00:07 2020] 47.247.5.140:37971 [200]: /vendor/jquery/jquery.min.js
[Sat Jul  4 22:00:07 2020] 47.247.37.72:37973 [200]: /vendor/adminlte/dist/img/AdminLTELogo.png
[Sat Jul  4 22:00:07 2020] 47.247.37.72:37977 [200]: /vendor/adminlte/dist/js/adminlte.min.js
[Sat Jul  4 22:00:07 2020] 47.247.5.140:37975 [200]: /vendor/bootstrap/js/bootstrap.bundle.min.js
[Sat Jul  4 22:00:07 2020] 47.247.37.72:37976 [200]: /vendor/overlayScrollbars/js/jquery.overlayScrollbars.min.js
[Sat Jul  4 22:00:09 2020] 47.247.5.140:37979 [200]: /vendor/fontawesome-free/webfonts/fa-solid-900.woff2
[Sat Jul  4 22:00:09 2020] 47.247.5.140:37978 [200]: /vendor/fontawesome-free/webfonts/fa-regular-400.woff2
[Sat Jul  4 22:00:09 2020] 47.247.5.140:37980 [200]: /favicon.ico
[Sat Jul  4 22:00:15 2020] 47.247.37.72:37982 [200]: /vendor/fontawesome-free/css/all.min.css
[Sat Jul  4 22:00:15 2020] 47.247.5.140:37985 [200]: /vendor/overlayScrollbars/css/OverlayScrollbars.min.css
[Sat Jul  4 22:00:15 2020] 47.247.37.72:37988 [200]: /vendor/adminlte/dist/css/adminlte.min.css
[Sat Jul  4 22:00:15 2020] 47.247.37.72:37987 [200]: /vendor/jquery/jquery.min.js
[Sat Jul  4 22:00:15 2020] 47.247.37.72:37989 [200]: /vendor/adminlte/dist/img/AdminLTELogo.png
[Sat Jul  4 22:00:15 2020] 47.247.5.140:37991 [200]: /vendor/bootstrap/js/bootstrap.bundle.min.js
[Sat Jul  4 22:00:15 2020] 47.247.37.72:37992 [200]: /vendor/overlayScrollbars/js/jquery.overlayScrollbars.min.js
[Sat Jul  4 22:00:15 2020] 47.247.5.140:37990 [200]: /vendor/adminlte/dist/js/adminlte.min.js
[Sat Jul  4 22:00:16 2020] 47.247.37.72:37993 [200]: /vendor/fontawesome-free/webfonts/fa-solid-900.woff2
[Sat Jul  4 22:00:16 2020] 47.247.37.72:37994 [200]: /vendor/fontawesome-free/webfonts/fa-regular-400.woff2
[Sat Jul  4 22:00:16 2020] 47.247.37.72:37995 [200]: /favicon.ico
[Sat Jul  4 22:00:52 2020] 47.247.37.72:37996 [200]: /favicon.ico
[Sat Jul  4 22:00:59 2020] 47.247.37.72:37998 [200]: /vendor/fontawesome-free/css/all.min.css
[Sat Jul  4 22:00:59 2020] 47.247.37.72:38002 [200]: /vendor/overlayScrollbars/css/OverlayScrollbars.min.css
[Sat Jul  4 22:00:59 2020] 47.247.37.72:38001 [200]: /vendor/adminlte/dist/css/adminlte.min.css
[Sat Jul  4 22:00:59 2020] 47.247.37.72:38005 [200]: /vendor/jquery/jquery.min.js
[Sat Jul  4 22:00:59 2020] 47.247.37.72:38004 [200]: /vendor/adminlte/dist/img/AdminLTELogo.png
[Sat Jul  4 22:00:59 2020] 47.247.5.140:38007 [200]: /vendor/bootstrap/js/bootstrap.bundle.min.js
[Sat Jul  4 22:00:59 2020] 47.247.37.72:38008 [200]: /vendor/adminlte/dist/js/adminlte.min.js
[Sat Jul  4 22:00:59 2020] 47.247.5.140:38009 [200]: /vendor/overlayScrollbars/js/jquery.overlayScrollbars.min.js
[Sat Jul  4 22:01:00 2020] 47.247.5.140:38012 [200]: /vendor/fontawesome-free/webfonts/fa-solid-900.woff2
[Sat Jul  4 22:01:00 2020] 47.247.37.72:38011 [200]: /vendor/fontawesome-free/webfonts/fa-regular-400.woff2
[Sat Jul  4 22:01:01 2020] 47.247.37.72:38013 [200]: /favicon.ico
[Sat Jul  4 22:01:04 2020] 47.247.37.72:38015 [200]: /vendor/fontawesome-free/css/all.min.css
[Sat Jul  4 22:01:04 2020] 47.247.5.140:38020 [200]: /vendor/overlayScrollbars/css/OverlayScrollbars.min.css
[Sat Jul  4 22:01:04 2020] 47.247.37.72:38018 [200]: /vendor/adminlte/dist/css/adminlte.min.css
[Sat Jul  4 22:01:04 2020] 47.247.5.140:38019 [200]: /vendor/jquery/jquery.min.js
[Sat Jul  4 22:01:04 2020] 47.247.37.72:38017 [200]: /vendor/adminlte/dist/img/AdminLTELogo.png
[Sat Jul  4 22:01:04 2020] 47.247.5.140:38021 [200]: /vendor/bootstrap/js/bootstrap.bundle.min.js
[Sat Jul  4 22:01:04 2020] 47.247.37.72:38022 [200]: /vendor/overlayScrollbars/js/jquery.overlayScrollbars.min.js
[Sat Jul  4 22:01:04 2020] 47.247.5.140:38023 [200]: /vendor/adminlte/dist/js/adminlte.min.js
[Sat Jul  4 22:01:05 2020] 47.247.37.72:38025 [200]: /vendor/fontawesome-free/webfonts/fa-regular-400.woff2
[Sat Jul  4 22:01:05 2020] 47.247.37.72:38024 [200]: /vendor/fontawesome-free/webfonts/fa-solid-900.woff2
[Sat Jul  4 22:01:06 2020] 47.247.5.140:38026 [200]: /favicon.ico
[Sat Jul  4 22:01:08 2020] 47.247.5.140:38028 [200]: /vendor/fontawesome-free/css/all.min.css
[Sat Jul  4 22:01:08 2020] 47.247.5.140:38029 [200]: /vendor/overlayScrollbars/css/OverlayScrollbars.min.css
[Sat Jul  4 22:01:08 2020] 47.247.5.140:38033 [200]: /vendor/adminlte/dist/css/adminlte.min.css
[Sat Jul  4 22:01:08 2020] 47.247.37.72:38030 [200]: /vendor/jquery/jquery.min.js
[Sat Jul  4 22:01:08 2020] 47.247.37.72:38031 [200]: /vendor/adminlte/dist/img/AdminLTELogo.png
[Sat Jul  4 22:01:08 2020] 47.247.37.72:38034 [200]: /vendor/bootstrap/js/bootstrap.bundle.min.js
[Sat Jul  4 22:01:08 2020] 47.247.5.140:38035 [200]: /vendor/overlayScrollbars/js/jquery.overlayScrollbars.min.js
[Sat Jul  4 22:01:08 2020] 47.247.37.72:38036 [200]: /vendor/adminlte/dist/js/adminlte.min.js
[Sat Jul  4 22:01:10 2020] 47.247.37.72:38038 [200]: /vendor/fontawesome-free/webfonts/fa-solid-900.woff2
[Sat Jul  4 22:01:10 2020] 47.247.5.140:38037 [200]: /vendor/fontawesome-free/webfonts/fa-regular-400.woff2
[Sat Jul  4 22:01:11 2020] 47.247.5.140:38039 [200]: /favicon.ico
[Sat Jul  4 22:41:50 2020] 183.136.225.44:14708 Invalid request (Malformed HTTP request)
[Sun Jul  5 18:32:05 2020] 202.83.42.185:34825 Invalid request (Malformed HTTP request)
[Sun Jul  5 18:50:11 2020] 202.83.42.185:44068 Invalid request (Malformed HTTP request)
[Sun Jul  5 22:30:05 2020] 152.57.2.28:34520 [200]: /vendor/fontawesome-free/css/all.min.css
[Sun Jul  5 22:30:05 2020] 152.57.2.28:63778 [200]: /vendor/icheck-bootstrap/icheck-bootstrap.min.css
[Sun Jul  5 22:30:05 2020] 152.57.2.28:34522 [200]: /vendor/overlayScrollbars/css/OverlayScrollbars.min.css
[Sun Jul  5 22:30:05 2020] 152.57.2.28:34524 [200]: /vendor/adminlte/dist/css/adminlte.min.css
[Sun Jul  5 22:30:05 2020] 152.57.2.28:34526 [200]: /vendor/jquery/jquery.min.js
[Sun Jul  5 22:30:05 2020] 152.57.2.28:34528 [200]: /vendor/bootstrap/js/bootstrap.bundle.min.js
[Sun Jul  5 22:30:05 2020] 152.57.2.28:34530 [200]: /vendor/overlayScrollbars/js/jquery.overlayScrollbars.min.js
[Sun Jul  5 22:30:05 2020] 152.57.2.28:34532 [200]: /vendor/adminlte/dist/js/adminlte.min.js
[Sun Jul  5 22:30:05 2020] 152.57.2.28:34534 [200]: /vendor/adminlte/dist/img/AdminLTELogo.png
[Sun Jul  5 22:30:06 2020] 152.57.2.28:34536 [200]: /vendor/fontawesome-free/webfonts/fa-solid-900.woff2
[Sun Jul  5 22:30:06 2020] 152.57.2.28:34538 [200]: /favicon.ico
[Mon Jul  6 06:39:12 2020] 202.83.42.137:15357 Invalid request (Malformed HTTP request)
[Mon Jul  6 09:03:12 2020] 45.136.108.66:2463 Invalid request (Malformed HTTP request)
[Mon Jul  6 09:59:56 2020] 47.31.50.226:38474 [200]: /favicon.ico
[Mon Jul  6 10:00:03 2020] 47.31.50.226:37210 [200]: /vendor/icheck-bootstrap/icheck-bootstrap.min.css
[Mon Jul  6 10:00:03 2020] 47.31.50.226:31293 [200]: /vendor/fontawesome-free/css/all.min.css
[Mon Jul  6 10:00:04 2020] 47.31.50.226:17333 [200]: /vendor/overlayScrollbars/css/OverlayScrollbars.min.css
[Mon Jul  6 10:00:04 2020] 47.31.50.226:31277 [200]: /vendor/adminlte/dist/css/adminlte.min.css
[Mon Jul  6 10:00:04 2020] 47.31.50.226:17931 [200]: /vendor/jquery/jquery.min.js
[Mon Jul  6 10:00:04 2020] 47.31.50.226:24794 [200]: /vendor/bootstrap/js/bootstrap.bundle.min.js
[Mon Jul  6 10:00:04 2020] 47.31.50.226:33152 [200]: /vendor/overlayScrollbars/js/jquery.overlayScrollbars.min.js
[Mon Jul  6 10:00:05 2020] 47.31.50.226:37385 [200]: /vendor/adminlte/dist/img/AdminLTELogo.png
[Mon Jul  6 10:00:05 2020] 47.31.50.226:20879 [200]: /vendor/adminlte/dist/js/adminlte.min.js
[Mon Jul  6 10:00:06 2020] 47.31.50.226:21469 [200]: /vendor/fontawesome-free/webfonts/fa-solid-900.woff2
[Mon Jul  6 10:00:08 2020] 47.31.50.226:27587 [200]: /favicon.ico
[Mon Jul  6 10:00:55 2020] 47.31.50.226:37005 [200]: /vendor/fontawesome-free/css/all.min.css
[Mon Jul  6 10:00:55 2020] 47.31.50.226:14065 [200]: /vendor/overlayScrollbars/css/OverlayScrollbars.min.css
[Mon Jul  6 10:00:55 2020] 47.31.50.226:25004 [200]: /vendor/adminlte/dist/css/adminlte.min.css
[Mon Jul  6 10:00:55 2020] 47.31.50.226:27466 [200]: /vendor/jquery/jquery.min.js
[Mon Jul  6 10:00:56 2020] 47.31.50.226:29738 [200]: /vendor/adminlte/dist/img/AdminLTELogo.png
[Mon Jul  6 10:00:56 2020] 47.31.50.226:13391 [200]: /vendor/overlayScrollbars/js/jquery.overlayScrollbars.min.js
[Mon Jul  6 10:00:56 2020] 47.31.50.226:34760 [200]: /vendor/adminlte/dist/js/adminlte.min.js
[Mon Jul  6 10:00:56 2020] 47.31.50.226:14260 [200]: /vendor/bootstrap/js/bootstrap.bundle.min.js
[Mon Jul  6 10:00:58 2020] 47.31.50.226:13430 [200]: /vendor/fontawesome-free/webfonts/fa-solid-900.woff2
[Mon Jul  6 10:00:58 2020] 47.31.50.226:37258 [200]: /vendor/fontawesome-free/webfonts/fa-regular-400.woff2
[Mon Jul  6 10:00:58 2020] 47.31.50.226:34595 [200]: /favicon.ico
[Mon Jul  6 10:01:48 2020] 47.31.50.226:21103 [200]: /vendor/fontawesome-free/css/all.min.css
[Mon Jul  6 10:01:48 2020] 47.31.50.226:20422 [200]: /vendor/overlayScrollbars/css/OverlayScrollbars.min.css
[Mon Jul  6 10:01:48 2020] 47.31.50.226:22930 [200]: /vendor/adminlte/dist/css/adminlte.min.css
[Mon Jul  6 10:01:49 2020] 47.31.50.226:27819 [200]: /vendor/jquery/jquery.min.js
[Mon Jul  6 10:01:49 2020] 47.31.50.226:38629 [200]: /vendor/overlayScrollbars/js/jquery.overlayScrollbars.min.js
[Mon Jul  6 10:01:49 2020] 47.31.50.226:21315 [200]: /vendor/bootstrap/js/bootstrap.bundle.min.js
[Mon Jul  6 10:01:50 2020] 47.31.50.226:15602 [200]: /vendor/adminlte/dist/js/adminlte.min.js
[Mon Jul  6 10:01:51 2020] 47.31.50.226:28773 [200]: /vendor/adminlte/dist/img/AdminLTELogo.png
[Mon Jul  6 10:01:52 2020] 47.31.50.226:23123 [200]: /vendor/fontawesome-free/webfonts/fa-regular-400.woff2
[Mon Jul  6 10:01:52 2020] 47.31.50.226:31210 [200]: /vendor/fontawesome-free/webfonts/fa-solid-900.woff2
[Mon Jul  6 10:01:53 2020] 47.31.50.226:21999 [200]: /favicon.ico
[Mon Jul  6 10:02:20 2020] 47.31.50.226:24214 [200]: /vendor/fontawesome-free/css/all.min.css
[Mon Jul  6 10:02:21 2020] 47.31.50.226:21258 [200]: /vendor/overlayScrollbars/css/OverlayScrollbars.min.css
[Mon Jul  6 10:02:21 2020] 47.31.50.226:30185 [200]: /vendor/adminlte/dist/css/adminlte.min.css
[Mon Jul  6 10:02:21 2020] 47.31.50.226:21378 [200]: /vendor/jquery/jquery.min.js
[Mon Jul  6 10:02:22 2020] 47.31.50.226:25168 [200]: /vendor/overlayScrollbars/js/jquery.overlayScrollbars.min.js
[Mon Jul  6 10:02:22 2020] 47.31.50.226:16829 [200]: /vendor/bootstrap/js/bootstrap.bundle.min.js
[Mon Jul  6 10:02:22 2020] 47.31.50.226:22044 [200]: /vendor/adminlte/dist/js/adminlte.min.js
[Mon Jul  6 10:02:22 2020] 47.31.50.226:16883 [200]: /vendor/adminlte/dist/img/AdminLTELogo.png
[Mon Jul  6 10:02:24 2020] 47.31.50.226:37150 [200]: /vendor/fontawesome-free/webfonts/fa-regular-400.woff2
[Mon Jul  6 10:02:24 2020] 47.31.50.226:22790 [200]: /vendor/fontawesome-free/webfonts/fa-solid-900.woff2
[Mon Jul  6 10:02:25 2020] 47.31.50.226:12535 [200]: /favicon.ico
[Mon Jul  6 10:02:41 2020] 47.31.50.226:23544 [200]: /vendor/fontawesome-free/css/all.min.css
[Mon Jul  6 10:02:41 2020] 47.31.50.226:36932 [200]: /vendor/overlayScrollbars/css/OverlayScrollbars.min.css
[Mon Jul  6 10:02:41 2020] 47.31.50.226:30824 [200]: /vendor/adminlte/dist/css/adminlte.min.css
[Mon Jul  6 10:02:41 2020] 47.31.50.226:31222 [200]: /vendor/jquery/jquery.min.js
[Mon Jul  6 10:02:42 2020] 47.31.50.226:23385 [200]: /vendor/bootstrap/js/bootstrap.bundle.min.js
[Mon Jul  6 10:02:42 2020] 47.31.50.226:22867 [200]: /vendor/overlayScrollbars/js/jquery.overlayScrollbars.min.js
[Mon Jul  6 10:02:42 2020] 47.31.50.226:33687 [200]: /vendor/adminlte/dist/js/adminlte.min.js
[Mon Jul  6 10:02:42 2020] 47.31.50.226:26346 [200]: /vendor/adminlte/dist/img/AdminLTELogo.png
[Mon Jul  6 10:02:44 2020] 47.31.50.226:30175 [200]: /vendor/fontawesome-free/webfonts/fa-solid-900.woff2
[Mon Jul  6 10:02:44 2020] 47.31.50.226:18994 [200]: /vendor/fontawesome-free/webfonts/fa-regular-400.woff2
[Mon Jul  6 10:02:45 2020] 47.31.50.226:24003 [200]: /favicon.ico
[Mon Jul  6 11:20:21 2020] 47.31.50.226:31927 [200]: /vendor/fontawesome-free/css/all.min.css
[Mon Jul  6 11:20:21 2020] 47.31.50.226:36520 [200]: /vendor/overlayScrollbars/css/OverlayScrollbars.min.css
[Mon Jul  6 11:20:21 2020] 47.31.50.226:26149 [200]: /vendor/adminlte/dist/css/adminlte.min.css
[Mon Jul  6 11:20:21 2020] 47.31.50.226:17479 [200]: /vendor/jquery/jquery.min.js
[Mon Jul  6 11:20:21 2020] 47.31.50.226:25184 [200]: /vendor/bootstrap/js/bootstrap.bundle.min.js
[Mon Jul  6 11:20:21 2020] 47.31.50.226:20232 [200]: /vendor/overlayScrollbars/js/jquery.overlayScrollbars.min.js
[Mon Jul  6 11:20:21 2020] 47.31.50.226:12920 [200]: /vendor/adminlte/dist/js/adminlte.min.js
[Mon Jul  6 11:20:21 2020] 47.31.50.226:21855 [200]: /vendor/adminlte/dist/img/AdminLTELogo.png
[Mon Jul  6 11:20:23 2020] 47.31.50.226:26655 [200]: /vendor/fontawesome-free/webfonts/fa-solid-900.woff2
[Mon Jul  6 11:20:23 2020] 47.31.50.226:30895 [200]: /vendor/fontawesome-free/webfonts/fa-regular-400.woff2
[Mon Jul  6 11:20:24 2020] 47.31.50.226:26400 [200]: /favicon.ico
[Mon Jul  6 11:20:26 2020] 47.31.50.226:18704 [200]: /vendor/fontawesome-free/css/all.min.css
[Mon Jul  6 11:20:26 2020] 47.31.50.226:33915 [200]: /vendor/adminlte/dist/css/adminlte.min.css
[Mon Jul  6 11:20:26 2020] 47.31.50.226:24602 [200]: /vendor/overlayScrollbars/css/OverlayScrollbars.min.css
[Mon Jul  6 11:20:26 2020] 47.31.50.226:12136 [200]: /vendor/jquery/jquery.min.js
[Mon Jul  6 11:20:26 2020] 47.31.50.226:21064 [200]: /vendor/bootstrap/js/bootstrap.bundle.min.js
[Mon Jul  6 11:20:26 2020] 47.31.50.226:23301 [200]: /vendor/overlayScrollbars/js/jquery.overlayScrollbars.min.js
[Mon Jul  6 11:20:27 2020] 47.31.50.226:18559 [200]: /vendor/adminlte/dist/js/adminlte.min.js
[Mon Jul  6 11:20:27 2020] 47.31.50.226:37455 [200]: /vendor/adminlte/dist/img/AdminLTELogo.png
[Mon Jul  6 11:20:29 2020] 47.31.50.226:21798 [200]: /vendor/fontawesome-free/webfonts/fa-solid-900.woff2
[Mon Jul  6 11:20:29 2020] 47.31.50.226:33664 [200]: /vendor/fontawesome-free/webfonts/fa-regular-400.woff2
[Mon Jul  6 11:20:30 2020] 47.31.50.226:30405 [200]: /favicon.ico
[Mon Jul  6 11:20:46 2020] 47.31.50.226:16079 [200]: /favicon.ico
[Mon Jul  6 11:20:52 2020] 47.31.50.226:35722 [200]: /favicon.ico
[Mon Jul  6 11:20:56 2020] 47.31.50.226:37917 [200]: /favicon.ico
[Mon Jul  6 11:21:01 2020] 47.31.50.226:30399 [200]: /favicon.ico
[Mon Jul  6 11:21:02 2020] 47.31.50.226:17181 [200]: /favicon.ico
[Mon Jul  6 11:21:05 2020] 47.31.50.226:19537 [200]: /favicon.ico
[Mon Jul  6 11:21:08 2020] 47.31.50.226:16858 [200]: /vendor/fontawesome-free/css/all.min.css
[Mon Jul  6 11:21:08 2020] 47.31.50.226:22382 [200]: /vendor/overlayScrollbars/css/OverlayScrollbars.min.css
[Mon Jul  6 11:21:08 2020] 47.31.50.226:26736 [200]: /vendor/adminlte/dist/css/adminlte.min.css
[Mon Jul  6 11:21:08 2020] 47.31.50.226:31179 [200]: /vendor/bootstrap/js/bootstrap.bundle.min.js
[Mon Jul  6 11:21:08 2020] 47.31.50.226:35096 [200]: /vendor/jquery/jquery.min.js
[Mon Jul  6 11:21:09 2020] 47.31.50.226:18516 [200]: /vendor/overlayScrollbars/js/jquery.overlayScrollbars.min.js
[Mon Jul  6 11:21:09 2020] 47.31.50.226:14610 [200]: /vendor/adminlte/dist/js/adminlte.min.js
[Mon Jul  6 11:21:09 2020] 47.31.50.226:31162 [200]: /vendor/adminlte/dist/img/AdminLTELogo.png
[Mon Jul  6 11:21:11 2020] 47.31.50.226:16888 [200]: /vendor/fontawesome-free/webfonts/fa-solid-900.woff2
[Mon Jul  6 11:21:11 2020] 47.31.50.226:33997 [200]: /vendor/fontawesome-free/webfonts/fa-regular-400.woff2
[Mon Jul  6 11:21:11 2020] 47.31.50.226:30377 [200]: /favicon.ico
[Mon Jul  6 11:21:16 2020] 47.31.50.226:36357 [200]: /vendor/fontawesome-free/css/all.min.css
[Mon Jul  6 11:21:16 2020] 47.31.50.226:37512 [200]: /vendor/adminlte/dist/css/adminlte.min.css
[Mon Jul  6 11:21:16 2020] 47.31.50.226:12802 [200]: /vendor/overlayScrollbars/css/OverlayScrollbars.min.css
[Mon Jul  6 11:21:16 2020] 47.31.50.226:25292 [200]: /vendor/adminlte/dist/img/AdminLTELogo.png
[Mon Jul  6 11:21:16 2020] 47.31.50.226:27063 [200]: /vendor/jquery/jquery.min.js
[Mon Jul  6 11:21:16 2020] 47.31.50.226:23124 [200]: /vendor/bootstrap/js/bootstrap.bundle.min.js
[Mon Jul  6 11:21:16 2020] 47.31.50.226:17456 [200]: /vendor/overlayScrollbars/js/jquery.overlayScrollbars.min.js
[Mon Jul  6 11:21:16 2020] 47.31.50.226:32004 [200]: /vendor/adminlte/dist/js/adminlte.min.js
[Mon Jul  6 11:21:18 2020] 47.31.50.226:14750 [200]: /vendor/fontawesome-free/webfonts/fa-solid-900.woff2
[Mon Jul  6 11:21:18 2020] 47.31.50.226:33297 [200]: /vendor/fontawesome-free/webfonts/fa-regular-400.woff2
[Mon Jul  6 11:21:18 2020] 47.31.50.226:24959 [200]: /favicon.ico
[Mon Jul  6 11:21:35 2020] 47.31.50.226:31117 [200]: /vendor/fontawesome-free/css/all.min.css
[Mon Jul  6 11:21:35 2020] 47.31.50.226:20910 [200]: /vendor/overlayScrollbars/css/OverlayScrollbars.min.css
[Mon Jul  6 11:21:35 2020] 47.31.50.226:13175 [200]: /vendor/adminlte/dist/css/adminlte.min.css
[Mon Jul  6 11:21:35 2020] 47.31.50.226:21809 [200]: /vendor/bootstrap/js/bootstrap.bundle.min.js
[Mon Jul  6 11:21:35 2020] 47.31.50.226:44118 [200]: /vendor/jquery/jquery.min.js
[Mon Jul  6 11:21:35 2020] 47.31.50.226:28963 [200]: /vendor/overlayScrollbars/js/jquery.overlayScrollbars.min.js
[Mon Jul  6 11:21:35 2020] 47.31.50.226:32997 [200]: /vendor/adminlte/dist/js/adminlte.min.js
[Mon Jul  6 11:21:35 2020] 47.31.50.226:28035 [200]: /vendor/adminlte/dist/img/AdminLTELogo.png
[Mon Jul  6 11:21:37 2020] 47.31.50.226:13879 [200]: /vendor/fontawesome-free/webfonts/fa-solid-900.woff2
[Mon Jul  6 11:21:37 2020] 47.31.50.226:29280 [200]: /vendor/fontawesome-free/webfonts/fa-regular-400.woff2
[Mon Jul  6 11:21:37 2020] 47.31.50.226:34403 [200]: /favicon.ico
[Mon Jul  6 11:21:44 2020] 47.31.50.226:33642 [200]: /vendor/fontawesome-free/css/all.min.css
[Mon Jul  6 11:21:44 2020] 47.31.50.226:21185 [200]: /vendor/overlayScrollbars/css/OverlayScrollbars.min.css
[Mon Jul  6 11:21:44 2020] 47.31.50.226:30723 [200]: /vendor/adminlte/dist/css/adminlte.min.css
[Mon Jul  6 11:21:44 2020] 47.31.50.226:29193 [200]: /vendor/adminlte/dist/img/AdminLTELogo.png
[Mon Jul  6 11:21:44 2020] 47.31.50.226:20850 [200]: /vendor/jquery/jquery.min.js
[Mon Jul  6 11:21:44 2020] 47.31.50.226:31610 [200]: /vendor/bootstrap/js/bootstrap.bundle.min.js
[Mon Jul  6 11:21:44 2020] 47.31.50.226:38640 [200]: /vendor/overlayScrollbars/js/jquery.overlayScrollbars.min.js
[Mon Jul  6 11:21:45 2020] 47.31.50.226:16182 [200]: /vendor/adminlte/dist/js/adminlte.min.js
[Mon Jul  6 11:21:46 2020] 47.31.50.226:38307 [200]: /vendor/fontawesome-free/webfonts/fa-solid-900.woff2
[Mon Jul  6 11:21:46 2020] 47.31.50.226:36409 [200]: /vendor/fontawesome-free/webfonts/fa-regular-400.woff2
[Mon Jul  6 11:21:46 2020] 47.31.50.226:37218 [200]: /favicon.ico
[Mon Jul  6 11:21:56 2020] 47.31.50.226:28332 [200]: /vendor/fontawesome-free/css/all.min.css
[Mon Jul  6 11:21:56 2020] 47.31.50.226:30152 [200]: /vendor/adminlte/dist/css/adminlte.min.css
[Mon Jul  6 11:21:56 2020] 47.31.50.226:12103 [200]: /vendor/overlayScrollbars/css/OverlayScrollbars.min.css
[Mon Jul  6 11:21:56 2020] 47.31.50.226:13381 [200]: /vendor/jquery/jquery.min.js
[Mon Jul  6 11:21:56 2020] 47.31.50.226:38493 [200]: /vendor/bootstrap/js/bootstrap.bundle.min.js
[Mon Jul  6 11:21:56 2020] 47.31.50.226:15574 [200]: /vendor/overlayScrollbars/js/jquery.overlayScrollbars.min.js
[Mon Jul  6 11:21:56 2020] 47.31.50.226:16341 [200]: /vendor/adminlte/dist/js/adminlte.min.js
[Mon Jul  6 11:21:56 2020] 47.31.50.226:17724 [200]: /vendor/adminlte/dist/img/AdminLTELogo.png
[Mon Jul  6 11:21:58 2020] 47.31.50.226:37045 [200]: /vendor/fontawesome-free/webfonts/fa-solid-900.woff2
[Mon Jul  6 11:21:58 2020] 47.31.50.226:35427 [200]: /vendor/fontawesome-free/webfonts/fa-regular-400.woff2
[Mon Jul  6 11:21:58 2020] 47.31.50.226:22277 [200]: /favicon.ico
[Mon Jul  6 11:22:12 2020] 47.31.50.226:23336 [200]: /favicon.ico
[Mon Jul  6 11:22:18 2020] 47.31.50.226:36350 [200]: /favicon.ico
[Mon Jul  6 11:22:20 2020] 47.31.50.226:19102 [200]: /vendor/fontawesome-free/css/all.min.css
[Mon Jul  6 11:22:21 2020] 47.31.50.226:24492 [200]: /vendor/adminlte/dist/css/adminlte.min.css
[Mon Jul  6 11:22:21 2020] 47.31.50.226:27565 [200]: /vendor/overlayScrollbars/css/OverlayScrollbars.min.css
[Mon Jul  6 11:22:21 2020] 47.31.50.226:30840 [200]: /vendor/bootstrap/js/bootstrap.bundle.min.js
[Mon Jul  6 11:22:21 2020] 47.31.50.226:50822 [200]: /vendor/jquery/jquery.min.js
[Mon Jul  6 11:22:21 2020] 47.31.50.226:18243 [200]: /vendor/overlayScrollbars/js/jquery.overlayScrollbars.min.js
[Mon Jul  6 11:22:21 2020] 47.31.50.226:33192 [200]: /vendor/adminlte/dist/js/adminlte.min.js
[Mon Jul  6 11:22:21 2020] 47.31.50.226:25231 [200]: /vendor/adminlte/dist/img/AdminLTELogo.png
[Mon Jul  6 11:22:22 2020] 47.31.50.226:25762 [200]: /vendor/fontawesome-free/webfonts/fa-solid-900.woff2
[Mon Jul  6 11:22:22 2020] 47.31.50.226:24476 [200]: /vendor/fontawesome-free/webfonts/fa-regular-400.woff2
[Mon Jul  6 11:22:22 2020] 47.31.50.226:17642 [200]: /favicon.ico
[Mon Jul  6 11:24:51 2020] 47.31.50.226:30689 [200]: /favicon.ico
[Mon Jul  6 16:49:17 2020] 47.31.50.226:20472 [200]: /favicon.ico
[Mon Jul  6 16:49:19 2020] 47.31.50.226:35093 [200]: /vendor/icheck-bootstrap/icheck-bootstrap.min.css
[Mon Jul  6 16:49:19 2020] 47.31.50.226:32710 [200]: /vendor/overlayScrollbars/css/OverlayScrollbars.min.css
[Mon Jul  6 16:49:19 2020] 47.31.50.226:31579 [200]: /vendor/adminlte/dist/css/adminlte.min.css
[Mon Jul  6 16:49:19 2020] 47.31.50.226:19472 [200]: /vendor/fontawesome-free/css/all.min.css
[Mon Jul  6 16:49:19 2020] 47.31.50.226:24082 [200]: /vendor/jquery/jquery.min.js
[Mon Jul  6 16:49:19 2020] 47.31.50.226:20243 [200]: /vendor/bootstrap/js/bootstrap.bundle.min.js
[Mon Jul  6 16:49:20 2020] 47.31.50.226:33252 [200]: /vendor/overlayScrollbars/js/jquery.overlayScrollbars.min.js
[Mon Jul  6 16:49:20 2020] 47.31.50.226:33421 [200]: /vendor/adminlte/dist/js/adminlte.min.js
[Mon Jul  6 16:49:20 2020] 47.31.50.226:26094 [200]: /vendor/adminlte/dist/img/AdminLTELogo.png
[Mon Jul  6 16:49:22 2020] 47.31.50.226:15332 [200]: /vendor/fontawesome-free/webfonts/fa-solid-900.woff2
[Mon Jul  6 16:49:22 2020] 47.31.50.226:13803 [200]: /favicon.ico
[Mon Jul  6 16:49:42 2020] 47.31.50.226:13236 [200]: /vendor/overlayScrollbars/css/OverlayScrollbars.min.css
[Mon Jul  6 16:49:42 2020] 47.31.50.226:24776 [200]: /vendor/fontawesome-free/css/all.min.css
[Mon Jul  6 16:49:42 2020] 47.31.50.226:25184 [200]: /vendor/adminlte/dist/css/adminlte.min.css
[Mon Jul  6 16:49:42 2020] 47.31.50.226:17261 [200]: /vendor/bootstrap/js/bootstrap.bundle.min.js
[Mon Jul  6 16:49:42 2020] 47.31.50.226:29824 [200]: /vendor/jquery/jquery.min.js
[Mon Jul  6 16:49:43 2020] 47.31.50.226:35405 [200]: /vendor/overlayScrollbars/js/jquery.overlayScrollbars.min.js
[Mon Jul  6 16:49:43 2020] 47.31.50.226:26800 [200]: /vendor/adminlte/dist/js/adminlte.min.js
[Mon Jul  6 16:49:43 2020] 47.31.50.226:22573 [200]: /vendor/adminlte/dist/img/AdminLTELogo.png
[Mon Jul  6 16:49:45 2020] 47.31.50.226:19381 [200]: /vendor/fontawesome-free/webfonts/fa-regular-400.woff2
[Mon Jul  6 16:49:45 2020] 47.31.50.226:47619 [200]: /vendor/fontawesome-free/webfonts/fa-solid-900.woff2
[Mon Jul  6 16:49:45 2020] 152.57.29.244:46176 [200]: /favicon.ico
[Mon Jul  6 16:49:45 2020] 47.31.50.226:28186 [200]: /favicon.ico
[Mon Jul  6 16:49:49 2020] 152.57.29.244:46183 [200]: /vendor/fontawesome-free/css/all.min.css
[Mon Jul  6 16:49:49 2020] 152.57.29.244:14478 [200]: /vendor/overlayScrollbars/css/OverlayScrollbars.min.css
[Mon Jul  6 16:49:49 2020] 152.57.29.244:46187 [200]: /vendor/adminlte/dist/css/adminlte.min.css
[Mon Jul  6 16:49:49 2020] 152.57.29.244:46184 [200]: /vendor/jquery/jquery.min.js
[Mon Jul  6 16:49:49 2020] 152.57.29.244:46185 [200]: /vendor/adminlte/dist/img/AdminLTELogo.png
[Mon Jul  6 16:49:49 2020] 152.57.29.244:46189 [200]: /vendor/bootstrap/js/bootstrap.bundle.min.js
[Mon Jul  6 16:49:49 2020] 152.57.29.244:46190 [200]: /vendor/overlayScrollbars/js/jquery.overlayScrollbars.min.js
[Mon Jul  6 16:49:49 2020] 152.57.29.244:46191 [200]: /vendor/adminlte/dist/js/adminlte.min.js
[Mon Jul  6 16:49:50 2020] 152.57.29.244:46193 [200]: /vendor/fontawesome-free/webfonts/fa-regular-400.woff2
[Mon Jul  6 16:49:50 2020] 152.57.29.244:46192 [200]: /vendor/fontawesome-free/webfonts/fa-solid-900.woff2
[Mon Jul  6 16:49:50 2020] 152.57.29.244:46194 [200]: /favicon.ico
[Mon Jul  6 17:08:01 2020] 47.31.50.226:16290 [200]: /vendor/fontawesome-free/css/all.min.css
[Mon Jul  6 17:08:01 2020] 47.31.50.226:37254 [200]: /vendor/adminlte/dist/css/adminlte.min.css
[Mon Jul  6 17:08:01 2020] 47.31.50.226:17896 [200]: /vendor/overlayScrollbars/css/OverlayScrollbars.min.css
[Mon Jul  6 17:08:01 2020] 47.31.50.226:12498 [200]: /vendor/jquery/jquery.min.js
[Mon Jul  6 17:08:02 2020] 47.31.50.226:31504 [200]: /vendor/adminlte/dist/img/AdminLTELogo.png
[Mon Jul  6 17:08:02 2020] 47.31.50.226:15774 [200]: /vendor/overlayScrollbars/js/jquery.overlayScrollbars.min.js
[Mon Jul  6 17:08:02 2020] 47.31.50.226:21549 [200]: /vendor/bootstrap/js/bootstrap.bundle.min.js
[Mon Jul  6 17:08:02 2020] 47.31.50.226:22236 [200]: /vendor/adminlte/dist/js/adminlte.min.js
[Mon Jul  6 17:08:04 2020] 47.31.50.226:24451 [200]: /vendor/fontawesome-free/webfonts/fa-solid-900.woff2
[Mon Jul  6 17:08:04 2020] 47.31.50.226:34983 [200]: /vendor/fontawesome-free/webfonts/fa-regular-400.woff2
[Mon Jul  6 17:08:04 2020] 47.31.50.226:25017 [200]: /favicon.ico
[Mon Jul  6 17:08:32 2020] 152.57.29.244:46207 [200]: /vendor/fontawesome-free/css/all.min.css
[Mon Jul  6 17:08:32 2020] 152.57.29.244:46212 [200]: /vendor/overlayScrollbars/css/OverlayScrollbars.min.css
[Mon Jul  6 17:08:32 2020] 152.57.29.244:46211 [200]: /vendor/adminlte/dist/css/adminlte.min.css
[Mon Jul  6 17:08:32 2020] 152.57.29.244:46213 [200]: /vendor/jquery/jquery.min.js
[Mon Jul  6 17:08:32 2020] 152.57.29.244:46216 [200]: /vendor/bootstrap/js/bootstrap.bundle.min.js
[Mon Jul  6 17:08:32 2020] 152.57.29.244:46217 [200]: /vendor/overlayScrollbars/js/jquery.overlayScrollbars.min.js
[Mon Jul  6 17:08:33 2020] 152.57.29.244:46218 [200]: /vendor/adminlte/dist/js/adminlte.min.js
[Mon Jul  6 17:08:33 2020] 152.57.29.244:46219 [200]: /vendor/adminlte/dist/img/AdminLTELogo.png
[Mon Jul  6 17:08:34 2020] 152.57.29.244:46220 [200]: /vendor/fontawesome-free/webfonts/fa-solid-900.woff2
[Mon Jul  6 17:08:34 2020] 152.57.29.244:46221 [200]: /vendor/fontawesome-free/webfonts/fa-regular-400.woff2
[Mon Jul  6 17:08:34 2020] 152.57.29.244:46222 [200]: /favicon.ico
[Mon Jul  6 17:10:29 2020] 152.57.29.244:46224 [200]: /vendor/fontawesome-free/css/all.min.css
[Mon Jul  6 17:10:29 2020] 152.57.29.244:46228 [200]: /vendor/overlayScrollbars/css/OverlayScrollbars.min.css
[Mon Jul  6 17:10:29 2020] 152.57.29.244:46230 [200]: /vendor/adminlte/dist/css/adminlte.min.css
[Mon Jul  6 17:10:29 2020] 152.57.29.244:46229 [200]: /vendor/jquery/jquery.min.js
[Mon Jul  6 17:10:29 2020] 152.57.29.244:46232 [200]: /vendor/adminlte/dist/img/AdminLTELogo.png
[Mon Jul  6 17:10:29 2020] 152.57.29.244:46233 [200]: /vendor/bootstrap/js/bootstrap.bundle.min.js
[Mon Jul  6 17:10:29 2020] 152.57.29.244:46234 [200]: /vendor/overlayScrollbars/js/jquery.overlayScrollbars.min.js
[Mon Jul  6 17:10:29 2020] 152.57.29.244:46235 [200]: /vendor/adminlte/dist/js/adminlte.min.js
[Mon Jul  6 17:10:30 2020] 152.57.29.244:46236 [200]: /vendor/fontawesome-free/webfonts/fa-solid-900.woff2
[Mon Jul  6 17:10:30 2020] 152.57.29.244:46237 [200]: /vendor/fontawesome-free/webfonts/fa-regular-400.woff2
[Mon Jul  6 17:10:31 2020] 152.57.29.244:46238 [200]: /favicon.ico
[Mon Jul  6 17:11:36 2020] 152.57.29.244:46242 [200]: /vendor/fontawesome-free/css/all.min.css
[Mon Jul  6 17:11:36 2020] 152.57.29.244:46247 [200]: /vendor/overlayScrollbars/css/OverlayScrollbars.min.css
[Mon Jul  6 17:11:36 2020] 152.57.29.244:46246 [200]: /vendor/adminlte/dist/css/adminlte.min.css
[Mon Jul  6 17:11:36 2020] 152.57.29.244:46248 [200]: /vendor/jquery/jquery.min.js
[Mon Jul  6 17:11:36 2020] 152.57.29.244:46249 [200]: /vendor/adminlte/dist/img/AdminLTELogo.png
[Mon Jul  6 17:11:36 2020] 152.57.29.244:46252 [200]: /vendor/bootstrap/js/bootstrap.bundle.min.js
[Mon Jul  6 17:11:36 2020] 152.57.29.244:46251 [200]: /vendor/overlayScrollbars/js/jquery.overlayScrollbars.min.js
[Mon Jul  6 17:11:36 2020] 152.57.29.244:46253 [200]: /vendor/adminlte/dist/js/adminlte.min.js
[Mon Jul  6 17:11:37 2020] 152.57.29.244:46254 [200]: /vendor/fontawesome-free/webfonts/fa-solid-900.woff2
[Mon Jul  6 17:11:37 2020] 152.57.29.244:46255 [200]: /vendor/fontawesome-free/webfonts/fa-regular-400.woff2
[Mon Jul  6 17:11:38 2020] 152.57.29.244:46256 [200]: /favicon.ico
[Mon Jul  6 17:11:41 2020] 47.31.50.226:26543 [200]: /vendor/fontawesome-free/css/all.min.css
[Mon Jul  6 17:11:41 2020] 47.31.50.226:30177 [200]: /vendor/adminlte/dist/css/adminlte.min.css
[Mon Jul  6 17:11:41 2020] 47.31.50.226:30361 [200]: /vendor/overlayScrollbars/css/OverlayScrollbars.min.css
[Mon Jul  6 17:11:42 2020] 47.31.50.226:30527 [200]: /vendor/bootstrap/js/bootstrap.bundle.min.js
[Mon Jul  6 17:11:42 2020] 47.31.50.226:31897 [200]: /vendor/jquery/jquery.min.js
[Mon Jul  6 17:11:42 2020] 47.31.50.226:16664 [200]: /vendor/overlayScrollbars/js/jquery.overlayScrollbars.min.js
[Mon Jul  6 17:11:42 2020] 47.31.50.226:20663 [200]: /vendor/adminlte/dist/js/adminlte.min.js
[Mon Jul  6 17:11:43 2020] 47.31.50.226:19595 [200]: /vendor/adminlte/dist/img/AdminLTELogo.png
[Mon Jul  6 17:12:01 2020] 47.31.50.226:18622 [200]: /vendor/fontawesome-free/webfonts/fa-solid-900.woff2
[Mon Jul  6 17:12:01 2020] 47.31.50.226:26910 [200]: /vendor/fontawesome-free/webfonts/fa-regular-400.woff2
[Mon Jul  6 17:12:05 2020] 47.31.50.226:13867 [200]: /favicon.ico
[Mon Jul  6 17:12:57 2020] 47.31.50.226:36027 [200]: /vendor/fontawesome-free/css/all.min.css
[Mon Jul  6 17:12:57 2020] 47.31.50.226:14683 [200]: /vendor/overlayScrollbars/css/OverlayScrollbars.min.css
[Mon Jul  6 17:12:57 2020] 47.31.50.226:18537 [200]: /vendor/adminlte/dist/css/adminlte.min.css
[Mon Jul  6 17:12:57 2020] 152.57.29.244:46258 [200]: /vendor/fontawesome-free/css/all.min.css
[Mon Jul  6 17:12:57 2020] 47.31.50.226:14943 [200]: /vendor/jquery/jquery.min.js
[Mon Jul  6 17:12:57 2020] 47.31.50.226:21367 [200]: /vendor/bootstrap/js/bootstrap.bundle.min.js
[Mon Jul  6 17:12:57 2020] 152.57.29.244:46263 [200]: /vendor/overlayScrollbars/css/OverlayScrollbars.min.css
[Mon Jul  6 17:12:57 2020] 152.57.29.244:46266 [200]: /vendor/adminlte/dist/css/adminlte.min.css
[Mon Jul  6 17:12:57 2020] 152.57.29.244:46262 [200]: /vendor/jquery/jquery.min.js
[Mon Jul  6 17:12:57 2020] 152.57.29.244:46264 [200]: /vendor/adminlte/dist/img/AdminLTELogo.png
[Mon Jul  6 17:12:58 2020] 152.57.29.244:46268 [200]: /vendor/bootstrap/js/bootstrap.bundle.min.js
[Mon Jul  6 17:12:58 2020] 152.57.29.244:46269 [200]: /vendor/overlayScrollbars/js/jquery.overlayScrollbars.min.js
[Mon Jul  6 17:12:58 2020] 152.57.29.244:46270 [200]: /vendor/adminlte/dist/js/adminlte.min.js
[Mon Jul  6 17:12:58 2020] 47.31.50.226:35745 [200]: /vendor/overlayScrollbars/js/jquery.overlayScrollbars.min.js
[Mon Jul  6 17:12:58 2020] 47.31.50.226:25349 [200]: /vendor/adminlte/dist/js/adminlte.min.js
[Mon Jul  6 17:12:58 2020] 47.31.50.226:33543 [200]: /vendor/adminlte/dist/img/AdminLTELogo.png
[Mon Jul  6 17:12:59 2020] 152.57.29.244:46271 [200]: /vendor/fontawesome-free/webfonts/fa-solid-900.woff2
[Mon Jul  6 17:12:59 2020] 152.57.29.244:46272 [200]: /vendor/fontawesome-free/webfonts/fa-regular-400.woff2
[Mon Jul  6 17:13:00 2020] 152.57.29.244:46273 [200]: /favicon.ico
[Mon Jul  6 17:13:01 2020] 47.31.50.226:28455 [200]: /vendor/fontawesome-free/webfonts/fa-solid-900.woff2
[Mon Jul  6 17:13:01 2020] 47.31.50.226:35404 [200]: /vendor/fontawesome-free/webfonts/fa-regular-400.woff2
[Mon Jul  6 17:13:01 2020] 47.31.50.226:30975 [200]: /favicon.ico
[Mon Jul  6 17:15:45 2020] 152.57.29.244:46275 [200]: /vendor/fontawesome-free/css/all.min.css
[Mon Jul  6 17:15:45 2020] 152.57.29.244:46285 [200]: /vendor/overlayScrollbars/css/OverlayScrollbars.min.css
[Mon Jul  6 17:15:45 2020] 152.57.29.244:46282 [200]: /vendor/adminlte/dist/css/adminlte.min.css
[Mon Jul  6 17:15:45 2020] 152.57.29.244:46284 [200]: /vendor/jquery/jquery.min.js
[Mon Jul  6 17:15:45 2020] 152.57.29.244:46281 [200]: /vendor/adminlte/dist/img/AdminLTELogo.png
[Mon Jul  6 17:15:45 2020] 152.57.29.244:46288 [200]: /vendor/overlayScrollbars/js/jquery.overlayScrollbars.min.js
[Mon Jul  6 17:15:45 2020] 152.57.29.244:46287 [200]: /vendor/bootstrap/js/bootstrap.bundle.min.js
[Mon Jul  6 17:15:45 2020] 152.57.29.244:46289 [200]: /vendor/adminlte/dist/js/adminlte.min.js
[Mon Jul  6 17:15:47 2020] 152.57.29.244:46290 [200]: /vendor/fontawesome-free/webfonts/fa-solid-900.woff2
[Mon Jul  6 17:15:47 2020] 152.57.29.244:46291 [200]: /vendor/fontawesome-free/webfonts/fa-regular-400.woff2
[Mon Jul  6 17:15:47 2020] 152.57.29.244:46292 [200]: /favicon.ico
[Mon Jul  6 17:16:03 2020] 47.31.50.226:28594 [200]: /vendor/fontawesome-free/css/all.min.css
[Mon Jul  6 17:16:03 2020] 47.31.50.226:16184 [200]: /vendor/overlayScrollbars/css/OverlayScrollbars.min.css
[Mon Jul  6 17:16:03 2020] 47.31.50.226:32912 [200]: /vendor/adminlte/dist/css/adminlte.min.css
[Mon Jul  6 17:16:03 2020] 47.31.50.226:16669 [200]: /vendor/jquery/jquery.min.js
[Mon Jul  6 17:16:03 2020] 47.31.50.226:27379 [200]: /vendor/adminlte/dist/img/AdminLTELogo.png
[Mon Jul  6 17:16:04 2020] 47.31.50.226:38195 [200]: /vendor/bootstrap/js/bootstrap.bundle.min.js
[Mon Jul  6 17:16:04 2020] 47.31.50.226:36541 [200]: /vendor/overlayScrollbars/js/jquery.overlayScrollbars.min.js
[Mon Jul  6 17:16:04 2020] 47.31.50.226:26701 [200]: /vendor/adminlte/dist/js/adminlte.min.js
[Mon Jul  6 17:16:07 2020] 47.31.50.226:21923 [200]: /vendor/fontawesome-free/webfonts/fa-solid-900.woff2
[Mon Jul  6 17:16:07 2020] 47.31.50.226:15196 [200]: /vendor/fontawesome-free/webfonts/fa-regular-400.woff2
[Mon Jul  6 17:16:08 2020] 47.31.50.226:19355 [200]: /favicon.ico
[Mon Jul  6 17:16:24 2020] 152.57.29.244:46293 [200]: /vendor/fontawesome-free/css/all.min.css
[Mon Jul  6 17:16:24 2020] 152.57.29.244:46301 [200]: /vendor/overlayScrollbars/css/OverlayScrollbars.min.css
[Mon Jul  6 17:16:24 2020] 152.57.29.244:46299 [200]: /vendor/adminlte/dist/css/adminlte.min.css
[Mon Jul  6 17:16:24 2020] 152.57.29.244:46300 [200]: /vendor/adminlte/dist/img/AdminLTELogo.png
[Mon Jul  6 17:16:24 2020] 152.57.29.244:46303 [200]: /vendor/jquery/jquery.min.js
[Mon Jul  6 17:16:24 2020] 152.57.29.244:46305 [200]: /vendor/bootstrap/js/bootstrap.bundle.min.js
[Mon Jul  6 17:16:24 2020] 152.57.29.244:46304 [200]: /vendor/overlayScrollbars/js/jquery.overlayScrollbars.min.js
[Mon Jul  6 17:16:24 2020] 152.57.29.244:46306 [200]: /vendor/adminlte/dist/js/adminlte.min.js
[Mon Jul  6 17:16:26 2020] 152.57.29.244:46308 [200]: /vendor/fontawesome-free/webfonts/fa-solid-900.woff2
[Mon Jul  6 17:16:26 2020] 152.57.29.244:46307 [200]: /vendor/fontawesome-free/webfonts/fa-regular-400.woff2
[Mon Jul  6 17:16:26 2020] 152.57.29.244:46309 [200]: /favicon.ico
[Mon Jul  6 17:17:02 2020] 152.57.29.244:46311 [200]: /vendor/fontawesome-free/css/all.min.css
[Mon Jul  6 17:17:02 2020] 152.57.29.244:46316 [200]: /vendor/overlayScrollbars/css/OverlayScrollbars.min.css
[Mon Jul  6 17:17:02 2020] 152.57.29.244:46317 [200]: /vendor/adminlte/dist/css/adminlte.min.css
[Mon Jul  6 17:17:02 2020] 152.57.29.244:46319 [200]: /vendor/jquery/jquery.min.js
[Mon Jul  6 17:17:02 2020] 152.57.29.244:59268 [200]: /vendor/adminlte/dist/img/AdminLTELogo.png
[Mon Jul  6 17:17:02 2020] 152.57.29.244:46322 [200]: /vendor/bootstrap/js/bootstrap.bundle.min.js
[Mon Jul  6 17:17:02 2020] 152.57.29.244:46324 [200]: /vendor/overlayScrollbars/js/jquery.overlayScrollbars.min.js
[Mon Jul  6 17:17:02 2020] 152.57.29.244:46323 [200]: /vendor/adminlte/dist/js/adminlte.min.js
[Mon Jul  6 17:17:03 2020] 47.31.50.226:30748 [200]: /vendor/fontawesome-free/css/all.min.css
[Mon Jul  6 17:17:03 2020] 47.31.50.226:33855 [200]: /vendor/overlayScrollbars/css/OverlayScrollbars.min.css
[Mon Jul  6 17:17:03 2020] 47.31.50.226:32183 [200]: /vendor/adminlte/dist/css/adminlte.min.css
[Mon Jul  6 17:17:03 2020] 47.31.50.226:29586 [200]: /vendor/jquery/jquery.min.js
[Mon Jul  6 17:17:03 2020] 47.31.50.226:31323 [200]: /vendor/bootstrap/js/bootstrap.bundle.min.js
[Mon Jul  6 17:17:03 2020] 47.31.50.226:17330 [200]: /vendor/overlayScrollbars/js/jquery.overlayScrollbars.min.js
[Mon Jul  6 17:17:03 2020] 152.57.29.244:46326 [200]: /vendor/fontawesome-free/webfonts/fa-solid-900.woff2
[Mon Jul  6 17:17:03 2020] 152.57.29.244:46325 [200]: /vendor/fontawesome-free/webfonts/fa-regular-400.woff2
[Mon Jul  6 17:17:03 2020] 47.31.50.226:23438 [200]: /vendor/adminlte/dist/js/adminlte.min.js
[Mon Jul  6 17:17:03 2020] 47.31.50.226:25268 [200]: /vendor/adminlte/dist/img/AdminLTELogo.png
[Mon Jul  6 17:17:04 2020] 152.57.29.244:46327 [200]: /favicon.ico
[Mon Jul  6 17:17:05 2020] 47.31.50.226:18951 [200]: /vendor/fontawesome-free/webfonts/fa-solid-900.woff2
[Mon Jul  6 17:17:05 2020] 47.31.50.226:23287 [200]: /vendor/fontawesome-free/webfonts/fa-regular-400.woff2
[Mon Jul  6 17:17:06 2020] 47.31.50.226:15465 [200]: /favicon.ico
[Mon Jul  6 17:17:06 2020] 152.57.29.244:46329 [200]: /vendor/fontawesome-free/css/all.min.css
[Mon Jul  6 17:17:06 2020] 152.57.29.244:46332 [200]: /vendor/overlayScrollbars/css/OverlayScrollbars.min.css
[Mon Jul  6 17:17:06 2020] 152.57.29.244:46333 [200]: /vendor/adminlte/dist/css/adminlte.min.css
[Mon Jul  6 17:17:06 2020] 152.57.29.244:46334 [200]: /vendor/adminlte/dist/img/AdminLTELogo.png
[Mon Jul  6 17:17:06 2020] 152.57.29.244:46335 [200]: /vendor/jquery/jquery.min.js
[Mon Jul  6 17:17:06 2020] 152.57.29.244:46336 [200]: /vendor/bootstrap/js/bootstrap.bundle.min.js
[Mon Jul  6 17:17:06 2020] 152.57.29.244:46337 [200]: /vendor/overlayScrollbars/js/jquery.overlayScrollbars.min.js
[Mon Jul  6 17:17:06 2020] 152.57.29.244:46338 [200]: /vendor/adminlte/dist/js/adminlte.min.js
[Mon Jul  6 17:17:07 2020] 152.57.29.244:46339 [200]: /vendor/fontawesome-free/webfonts/fa-solid-900.woff2
[Mon Jul  6 17:17:07 2020] 152.57.29.244:46340 [200]: /vendor/fontawesome-free/webfonts/fa-regular-400.woff2
[Mon Jul  6 17:17:08 2020] 152.57.29.244:46341 [200]: /favicon.ico
[Mon Jul  6 17:17:13 2020] 47.31.50.226:31761 [200]: /vendor/fontawesome-free/css/all.min.css
[Mon Jul  6 17:17:13 2020] 47.31.50.226:37444 [200]: /vendor/overlayScrollbars/css/OverlayScrollbars.min.css
[Mon Jul  6 17:17:13 2020] 47.31.50.226:25446 [200]: /vendor/adminlte/dist/css/adminlte.min.css
[Mon Jul  6 17:17:13 2020] 47.31.50.226:31941 [200]: /vendor/bootstrap/js/bootstrap.bundle.min.js
[Mon Jul  6 17:17:13 2020] 47.31.50.226:36086 [200]: /vendor/jquery/jquery.min.js
[Mon Jul  6 17:17:13 2020] 47.31.50.226:28629 [200]: /vendor/overlayScrollbars/js/jquery.overlayScrollbars.min.js
[Mon Jul  6 17:17:13 2020] 47.31.50.226:16517 [200]: /vendor/adminlte/dist/js/adminlte.min.js
[Mon Jul  6 17:17:13 2020] 47.31.50.226:19997 [200]: /vendor/adminlte/dist/img/AdminLTELogo.png
[Mon Jul  6 17:17:15 2020] 47.31.50.226:30609 [200]: /vendor/fontawesome-free/webfonts/fa-regular-400.woff2
[Mon Jul  6 17:17:15 2020] 47.31.50.226:12689 [200]: /vendor/fontawesome-free/webfonts/fa-solid-900.woff2
[Mon Jul  6 17:17:15 2020] 47.31.50.226:34861 [200]: /favicon.ico
[Mon Jul  6 17:19:03 2020] 152.57.29.244:46342 [200]: /vendor/fontawesome-free/css/all.min.css
[Mon Jul  6 17:19:03 2020] 152.57.29.244:46349 [200]: /vendor/overlayScrollbars/css/OverlayScrollbars.min.css
[Mon Jul  6 17:19:03 2020] 152.57.29.244:46348 [200]: /vendor/adminlte/dist/css/adminlte.min.css
[Mon Jul  6 17:19:03 2020] 152.57.29.244:46347 [200]: /vendor/adminlte/dist/img/AdminLTELogo.png
[Mon Jul  6 17:19:03 2020] 152.57.29.244:46350 [200]: /vendor/jquery/jquery.min.js
[Mon Jul  6 17:19:03 2020] 152.57.29.244:46353 [200]: /vendor/bootstrap/js/bootstrap.bundle.min.js
[Mon Jul  6 17:19:03 2020] 152.57.29.244:46354 [200]: /vendor/overlayScrollbars/js/jquery.overlayScrollbars.min.js
[Mon Jul  6 17:19:03 2020] 152.57.29.244:46355 [200]: /vendor/adminlte/dist/js/adminlte.min.js
[Mon Jul  6 17:19:04 2020] 152.57.29.244:50346 [200]: /vendor/fontawesome-free/webfonts/fa-solid-900.woff2
[Mon Jul  6 17:19:04 2020] 152.57.29.244:46357 [200]: /vendor/fontawesome-free/webfonts/fa-regular-400.woff2
[Mon Jul  6 17:19:04 2020] 152.57.29.244:46358 [200]: /favicon.ico
[Mon Jul  6 17:19:08 2020] 152.57.29.244:46360 [200]: /vendor/fontawesome-free/css/all.min.css
[Mon Jul  6 17:19:08 2020] 152.57.29.244:46365 [200]: /vendor/adminlte/dist/css/adminlte.min.css
[Mon Jul  6 17:19:08 2020] 152.57.29.244:46362 [200]: /vendor/overlayScrollbars/css/OverlayScrollbars.min.css
[Mon Jul  6 17:19:08 2020] 152.57.29.244:46364 [200]: /vendor/jquery/jquery.min.js
[Mon Jul  6 17:19:08 2020] 152.57.29.244:46361 [200]: /vendor/adminlte/dist/img/AdminLTELogo.png
[Mon Jul  6 17:19:08 2020] 152.57.29.244:46366 [200]: /vendor/bootstrap/js/bootstrap.bundle.min.js
[Mon Jul  6 17:19:08 2020] 152.57.29.244:46367 [200]: /vendor/overlayScrollbars/js/jquery.overlayScrollbars.min.js
[Mon Jul  6 17:19:09 2020] 152.57.29.244:46368 [200]: /vendor/adminlte/dist/js/adminlte.min.js
[Mon Jul  6 17:19:09 2020] 47.31.50.226:14991 [200]: /vendor/fontawesome-free/css/all.min.css
[Mon Jul  6 17:19:09 2020] 47.31.50.226:27757 [200]: /vendor/adminlte/dist/css/adminlte.min.css
[Mon Jul  6 17:19:09 2020] 47.31.50.226:20392 [200]: /vendor/overlayScrollbars/css/OverlayScrollbars.min.css
[Mon Jul  6 17:19:09 2020] 47.31.50.226:34418 [200]: /vendor/bootstrap/js/bootstrap.bundle.min.js
[Mon Jul  6 17:19:09 2020] 47.31.50.226:38342 [200]: /vendor/jquery/jquery.min.js
[Mon Jul  6 17:19:09 2020] 152.57.29.244:46369 [200]: /vendor/fontawesome-free/webfonts/fa-solid-900.woff2
[Mon Jul  6 17:19:09 2020] 152.57.29.244:46370 [200]: /vendor/fontawesome-free/webfonts/fa-regular-400.woff2
[Mon Jul  6 17:19:10 2020] 152.57.29.244:46371 [200]: /favicon.ico
[Mon Jul  6 17:19:10 2020] 47.31.50.226:36889 [200]: /vendor/overlayScrollbars/js/jquery.overlayScrollbars.min.js
[Mon Jul  6 17:19:11 2020] 47.31.50.226:34919 [200]: /vendor/adminlte/dist/js/adminlte.min.js
[Mon Jul  6 17:19:11 2020] 47.31.50.226:24691 [200]: /vendor/adminlte/dist/img/AdminLTELogo.png
[Mon Jul  6 17:19:14 2020] 47.31.50.226:30349 [200]: /vendor/fontawesome-free/webfonts/fa-solid-900.woff2
[Mon Jul  6 17:19:14 2020] 47.31.50.226:25539 [200]: /vendor/fontawesome-free/webfonts/fa-regular-400.woff2
[Mon Jul  6 17:19:15 2020] 47.31.50.226:34883 [200]: /favicon.ico
[Mon Jul  6 17:23:19 2020] 152.57.29.244:46395 [200]: /vendor/adminlte/dist/css/adminlte.min.css
[Mon Jul  6 17:23:19 2020] 152.57.29.244:46394 [200]: /vendor/fontawesome-free/css/all.min.css
[Mon Jul  6 17:23:19 2020] 152.57.29.244:46393 [200]: /vendor/overlayScrollbars/css/OverlayScrollbars.min.css
[Mon Jul  6 17:23:19 2020] 152.57.29.244:46398 [200]: /vendor/jquery/jquery.min.js
[Mon Jul  6 17:23:19 2020] 152.57.29.244:46399 [200]: /vendor/bootstrap/js/bootstrap.bundle.min.js
[Mon Jul  6 17:23:20 2020] 152.57.29.244:46400 [200]: /vendor/overlayScrollbars/js/jquery.overlayScrollbars.min.js
[Mon Jul  6 17:23:20 2020] 152.57.29.244:46401 [200]: /vendor/adminlte/dist/js/adminlte.min.js
[Mon Jul  6 17:23:20 2020] 152.57.29.244:46402 [200]: /vendor/adminlte/dist/img/AdminLTELogo.png
[Mon Jul  6 17:23:20 2020] 152.57.29.244:32403 [200]: /vendor/fontawesome-free/webfonts/fa-solid-900.woff2
[Mon Jul  6 17:23:20 2020] 152.57.29.244:46404 [200]: /vendor/fontawesome-free/webfonts/fa-regular-400.woff2
[Mon Jul  6 17:23:21 2020] 152.57.29.244:46405 [200]: /favicon.ico
[Mon Jul  6 19:35:01 2020] 152.57.29.244:46734 [200]: /favicon.ico
[Tue Jul  7 05:18:05 2020] 47.31.37.59:17859 [200]: /favicon.ico
[Tue Jul  7 13:02:05 2020] 51.91.212.79:50592 Invalid request (Unsupported SSL request)
[Wed Jul  8 07:17:53 2020] 34.238.153.39:57644 Invalid request (Unsupported SSL request)
[Wed Jul  8 13:34:04 2020] 100.24.35.104:45372 Invalid request (Unsupported SSL request)
[Thu Jul  9 04:38:46 2020] 47.30.155.221:63773 [200]: /favicon.ico
[Thu Jul  9 11:20:07 2020] 80.82.77.33:34394 [200]: /favicon.ico
[Thu Jul  9 15:43:26 2020] 51.91.247.125:41578 Invalid request (Unsupported SSL request)
[Thu Jul  9 17:08:35 2020] 172.105.89.161:51222 Invalid request (Malformed HTTP request)
